%YAML 1.1
%TAG !u! tag:unity3d.com,2011:
--- !u!21 &2100000
Material:
  serializedVersion: 6
  m_ObjectHideFlags: 0
  m_PrefabParentObject: {fileID: 0}
  m_PrefabInternal: {fileID: 0}
  m_Name: sample_decal_02_packed_parallax
  m_Shader: {fileID: 4800000, guid: 3b42103ef4a30b346ad08c7c820f8f65, type: 3}
  m_ShaderKeywords: 
  m_LightmapFlags: 5
  m_CustomRenderQueue: 2450
  stringTagMap: {}
  m_SavedProperties:
    serializedVersion: 2
    m_TexEnvs:
      data:
        first:
          name: _MainTex
        second:
          m_Texture: {fileID: 2800000, guid: a286785b56170c5418e3af78a643c695, type: 3}
          m_Scale: {x: 1, y: 1}
          m_Offset: {x: 0, y: 0}
      data:
        first:
          name: _BumpMap
        second:
          m_Texture: {fileID: 2800000, guid: 7ea8883235661694c8a7cc889384931e, type: 3}
          m_Scale: {x: 1, y: 1}
          m_Offset: {x: 0, y: 0}
      data:
        first:
          name: _DetailNormalMap
        second:
          m_Texture: {fileID: 0}
          m_Scale: {x: 1, y: 1}
          m_Offset: {x: 0, y: 0}
      data:
        first:
          name: _ParallaxMap
        second:
          m_Texture: {fileID: 0}
          m_Scale: {x: 1, y: 1}
          m_Offset: {x: 0, y: 0}
      data:
        first:
          name: _OcclusionMap
        second:
          m_Texture: {fileID: 0}
          m_Scale: {x: 1, y: 1}
          m_Offset: {x: 0, y: 0}
      data:
        first:
          name: _EmissionMap
        second:
          m_Texture: {fileID: 0}
          m_Scale: {x: 1, y: 1}
          m_Offset: {x: 0, y: 0}
      data:
        first:
          name: _DetailMask
        second:
          m_Texture: {fileID: 0}
          m_Scale: {x: 1, y: 1}
          m_Offset: {x: 0, y: 0}
      data:
        first:
          name: _DetailAlbedoMap
        second:
          m_Texture: {fileID: 0}
          m_Scale: {x: 1, y: 1}
          m_Offset: {x: 0, y: 0}
      data:
        first:
          name: _MetallicGlossMap
        second:
          m_Texture: {fileID: 0}
          m_Scale: {x: 1, y: 1}
          m_Offset: {x: 0, y: 0}
    m_Floats:
      data:
        first:
          name: _SrcBlend
        second: 1
      data:
        first:
          name: _DstBlend
        second: 0
      data:
        first:
          name: _Cutoff
        second: .5
      data:
        first:
          name: _Parallax
        second: .0199999996
      data:
        first:
          name: _ZWrite
        second: 1
      data:
        first:
          name: _Glossiness
        second: .5
      data:
        first:
          name: _BumpScale
        second: 1
      data:
        first:
          name: _OcclusionStrength
        second: 1
      data:
        first:
          name: _DetailNormalMapScale
        second: 1
      data:
        first:
          name: _UVSec
        second: 0
      data:
        first:
          name: _Mode
        second: 0
      data:
        first:
          name: _Metallic
        second: 0
      data:
        first:
          name: _SmoothnessLow
        second: .101999998
      data:
        first:
          name: _SmoothnessHigh
        second: .680000007
      data:
        first:
          name: _Metalness
        second: 0
      data:
        first:
          name: _ContributionDiffuseSpecular
        second: 1
      data:
        first:
          name: _ContributionNormal
        second: 1
      data:
        first:
          name: _ContributionEmission
        second: 1
      data:
        first:
          name: _ContributionOcclusion
        second: 1
      data:
        first:
          name: _ContributionCavity
        second: .577000022
      data:
        first:
          name: _ContributionEmissionMask
        second: 1
      data:
        first:
          name: _ParallaxHeight
        second: .0199999996
      data:
        first:
          name: _MaskAlphaUsingAO
        second: 1
      data:
        first:
          name: _MaskAlphaPower
        second: 3.3900001
      data:
        first:
          name: _MaskAlphaShift
        second: .261000007
      data:
        first:
          name: _ColorEmissionMultiplier
        second: 1
    m_Colors:
      data:
        first:
          name: _EmissionColor
        second: {r: 0, g: 0, b: 0, a: 1}
      data:
        first:
          name: _Color
        second: {r: .913725495, g: .913725495, b: .913725495, a: 1}
      data:
        first:
          name: _ColorMain
        second: {r: .470588207, g: .470588207, b: .470588207, a: 1}
      data:
        first:
          name: _ColorEmission
        second: {r: 0, g: 0, b: 0, a: 0}
